Untitled • statslab2022
…
#note - changed headers in excel to match time of day & condition

library(tidyr)

pivot_longer(data = wide_data, 
             cols = !participant,
             names_to = "time_of_day",
             values_to = "counts")

## # A tibble: 120 x 3
##    participant time_of_day       counts
##          <int> <chr>              <dbl>
##  1           1 Morning_A_Noisy       61
##  2           1 Morning_B_Noisy       77
##  3           1 Afternoon_A_Noisy     97
##  4           1 Afternoon_B_Noisy     97
##  5           1 Evening_A_Noisy       89
##  6           1 Evening_B_Noisy       94
##  7           1 Morning_A_Quiet       87
##  8           1 Morning_B_Quiet       87
##  9           1 Afternoon_A_Quiet     65
## 10           1 Afternoon_B_Quiet     53
## # … with 110 more rows
…
